digraph G {
bb1 [shape=record, label="<b>BB1|{1:  read        |2:  read        |3: Const  #0    }"];
bb2 [shape=record, label="<b>BB2|{5:   Phi (9) (3)|9:   Phi (8) (2)|10:   Phi (5) (1)|4:   cmp (9)  #0|12:   bne (4) (13)}"];
bb3 [shape=record, label="<b>BB3|{6:   div (10) (9)|7:   mul (6) (9)|8:   sub (10) (7)|11:   bra (5)    }"];
bb4 [shape=record, label="<b>BB4|{13: write (10)    |14:   end        }"];
bb1:s -> bb2:n [label="fall-through"];
bb2:s -> bb3:n [label="fall-through"];
bb3:s -> bb2:n [color=brown, weight=0 label=<<font color='brown'>branch</font>>];
bb2:s -> bb4:n [color=brown, weight=0 label=<<font color='brown'>branch</font>>];
bb2:b -> bb3:b [color=blue, style=dotted, label=<<font color='blue'>dom</font>>];
bb2:b -> bb4:b [color=blue, style=dotted, label=<<font color='blue'>dom</font>>];
bb1:b -> bb2:b [color=blue, style=dotted, label=<<font color='blue'>dom</font>>];
}