digraph G {
bb1 [shape=record, label="<b>BB1|{1: Const  #1    |2: Const  #2    |3:   cmp (1) (2)|13:   bgt (3) (12)}"];
bb3 [shape=record, label="<b>BB3|{4:   sub (2) (1)|6:   cmp (1) (4)|10:   beq (6) (8)}"];
bb5 [shape=record, label="<b>BB5|{7: Const  #0    |9:   bra (8)    }"];
bb4 [shape=record, label="<b>BB4|{8:   Phi (7) (4)|11:   bra (5)    }"];
bb2 [shape=record, label="<b>BB2|{5:   Phi (8) (12)|14:   end        }"];
bb6 [shape=record, label="<b>BB6|{12:   add (2) (1)}"];
bb1:s -> bb3:n [label="fall-through"];
bb3:s -> bb5:n [label="fall-through"];
bb5:s -> bb4:n [color=brown, weight=0 label=<<font color='brown'>branch</font>>];
bb4:s -> bb2:n [color=brown, weight=0 label=<<font color='brown'>branch</font>>];
bb3:s -> bb4:n [color=brown, weight=0 label=<<font color='brown'>branch</font>>];
bb3:b -> bb4:b [color=blue, style=dotted, label=<<font color='blue'>dom</font>>];
bb3:b -> bb5:b [color=blue, style=dotted, label=<<font color='blue'>dom</font>>];
bb1:s -> bb6:n [color=brown, weight=0 label=<<font color='brown'>branch</font>>];
bb6:s -> bb2:n [label="fall-through"];
bb1:b -> bb2:b [color=blue, style=dotted, label=<<font color='blue'>dom</font>>];
bb1:b -> bb3:b [color=blue, style=dotted, label=<<font color='blue'>dom</font>>];
bb1:b -> bb6:b [color=blue, style=dotted, label=<<font color='blue'>dom</font>>];
}