digraph G {
bb1 [shape=record, label="<b>BB1|{1: Const  #1    |2: Const  #2    }"];
bb2 [shape=record, label="<b>BB2|{5:   Phi (8) (2)|3:   cmp (1) (5)|13:   bgt (3) (14)}"];
bb3 [shape=record, label="<b>BB3|{4:   sub (5) (1)|6:   cmp (1) (4)|11:   beq (6) (10)}"];
bb5 [shape=record, label="<b>BB5|{7: Const  #0    |9:   bra (8)    }"];
bb4 [shape=record, label="<b>BB4|{8:   Phi (7) (10)|12:   bra (5)    }"];
bb6 [shape=record, label="<b>BB6|{10: Const #10    }"];
bb7 [shape=record, label="<b>BB7|{14:   end        }"];
bb1:s -> bb2:n [label="fall-through"];
bb2:s -> bb3:n [label="fall-through"];
bb3:s -> bb5:n [label="fall-through"];
bb5:s -> bb4:n [color=brown, weight=0 label=<<font color='brown'>branch</font>>];
bb4:s -> bb2:n [color=brown, weight=0 label=<<font color='brown'>branch</font>>];
bb3:s -> bb6:n [color=brown, weight=0 label=<<font color='brown'>branch</font>>];
bb6:s -> bb4:n [label="fall-through"];
bb3:b -> bb4:b [color=blue, style=dotted, label=<<font color='blue'>dom</font>>];
bb3:b -> bb5:b [color=blue, style=dotted, label=<<font color='blue'>dom</font>>];
bb3:b -> bb6:b [color=blue, style=dotted, label=<<font color='blue'>dom</font>>];
bb2:s -> bb7:n [color=brown, weight=0 label=<<font color='brown'>branch</font>>];
bb2:b -> bb3:b [color=blue, style=dotted, label=<<font color='blue'>dom</font>>];
bb2:b -> bb7:b [color=blue, style=dotted, label=<<font color='blue'>dom</font>>];
bb1:b -> bb2:b [color=blue, style=dotted, label=<<font color='blue'>dom</font>>];
}